<!-- Generated by IcoMoon.io -->
<svg version="1.1" xmlns="http://www.w3.org/2000/svg" width="64" height="64" viewBox="0 0 64 64">
<title>location1</title>
<path d="M47.085 14.144c-8.331-8.195-21.837-8.195-30.168 0-8.331 8.197-8.331 21.485 0 29.68l15.083 14.84 15.085-14.84c8.331-8.195 8.331-21.483 0-29.68zM32 35.997c-1.781 0-3.453-0.693-4.715-1.952-2.6-2.6-2.6-6.829 0-9.429 1.259-1.259 2.933-1.952 4.715-1.952s3.456 0.693 4.715 1.952c2.6 2.6 2.6 6.832 0 9.429-1.259 1.259-2.933 1.952-4.715 1.952z"></path>
</svg>
