<!-- Generated by IcoMoon.io -->
<svg version="1.1" xmlns="http://www.w3.org/2000/svg" width="64" height="64" viewBox="0 0 64 64">
<title>map11</title>
<path d="M40 50.625v-31.625l-16-5.625v31.625zM54.625 8q1.375 0 1.375 1.375v40.25q0 1-1 1.25l-15 5.125-16-5.625-14.25 5.5-0.375 0.125q-1.375 0-1.375-1.375v-40.25q0-1 1-1.25l15-5.125 16 5.625 14.25-5.5z"></path>
</svg>
