<!-- Generated by IcoMoon.io -->
<svg version="1.1" xmlns="http://www.w3.org/2000/svg" width="64" height="64" viewBox="0 0 64 64">
<title>map11111</title>
<path d="M0 0l19.2 12.8 25.6-12.8 19.2 12.8v51.2l-19.2-12.8-25.6 12.8-19.2-12.8v-51.2zM22.4 19.2v35.2l19.2-9.6v-35.2l-19.2 9.6z"></path>
</svg>
